{
    "$schema": "https://json-schema.org/draft/2019-09/schema",
    "type": "object",
    "unevaluatedProperties": false,
    "patternProperties": {
        "^\\w+$": {
            "type": "string"
        }
    }
}